EESchema Schematic File Version 4
EELAYER 30 0
EELAYER END
$Descr A4 11693 8268
encoding utf-8
Sheet 1 1
Title "Button Input Shift-Register Breakout Board"
Date "2021-09-19"
Rev "0"
Comp "Florian Schuetz"
Comment1 ""
Comment2 ""
Comment3 ""
Comment4 ""
$EndDescr
$Comp
L Device:C C4
U 1 1 61276FCB
P 5950 3400
F 0 "C4" H 6065 3446 50  0000 L CNN
F 1 "100n" H 6065 3355 50  0000 L CNN
F 2 "Capacitor_SMD:C_0805_2012Metric_Pad1.18x1.45mm_HandSolder" H 5988 3250 50  0001 C CNN
F 3 "~" H 5950 3400 50  0001 C CNN
	1    5950 3400
	1    0    0    -1  
$EndComp
$Comp
L Device:C C3
U 1 1 61276FC1
P 5600 3400
F 0 "C3" H 5715 3446 50  0000 L CNN
F 1 "100n" H 5715 3355 50  0000 L CNN
F 2 "Capacitor_SMD:C_0805_2012Metric_Pad1.18x1.45mm_HandSolder" H 5638 3250 50  0001 C CNN
F 3 "~" H 5600 3400 50  0001 C CNN
	1    5600 3400
	1    0    0    -1  
$EndComp
$Comp
L Device:C C2
U 1 1 612760B4
P 5200 3400
F 0 "C2" H 5315 3446 50  0000 L CNN
F 1 "100n" H 5315 3355 50  0000 L CNN
F 2 "Capacitor_SMD:C_0805_2012Metric_Pad1.18x1.45mm_HandSolder" H 5238 3250 50  0001 C CNN
F 3 "~" H 5200 3400 50  0001 C CNN
	1    5200 3400
	1    0    0    -1  
$EndComp
$Comp
L Device:C C1
U 1 1 6127440A
P 4850 3400
F 0 "C1" H 4965 3446 50  0000 L CNN
F 1 "100n" H 4965 3355 50  0000 L CNN
F 2 "Capacitor_SMD:C_0805_2012Metric_Pad1.18x1.45mm_HandSolder" H 4888 3250 50  0001 C CNN
F 3 "~" H 4850 3400 50  0001 C CNN
	1    4850 3400
	1    0    0    -1  
$EndComp
Connection ~ 3200 1850
Wire Wire Line
	3000 1850 3200 1850
Wire Wire Line
	3000 2650 3800 2650
Wire Wire Line
	3000 2250 3500 2250
Wire Wire Line
	3000 3050 4100 3050
Wire Wire Line
	4100 3050 4300 3050
Wire Wire Line
	3800 2650 4300 2650
Wire Wire Line
	3500 2250 4300 2250
Wire Wire Line
	3200 1850 4300 1850
Wire Wire Line
	3500 1600 3500 2250
Wire Wire Line
	3800 1600 3800 2650
Wire Wire Line
	4100 1600 4100 3050
Connection ~ 3500 1200
Wire Wire Line
	3500 1200 3200 1200
Connection ~ 4100 3050
Connection ~ 3800 2650
Connection ~ 3500 2250
Wire Wire Line
	3200 1600 3200 1850
$Comp
L power:VCC #PWR0101
U 1 1 6125DEBD
P 1350 700
F 0 "#PWR0101" H 1350 550 50  0001 C CNN
F 1 "VCC" H 1365 873 50  0000 C CNN
F 2 "" H 1350 700 50  0001 C CNN
F 3 "" H 1350 700 50  0001 C CNN
	1    1350 700 
	1    0    0    -1  
$EndComp
Wire Wire Line
	4100 1300 4100 1200
Wire Wire Line
	3800 1300 3800 1200
Wire Wire Line
	3800 1200 3500 1200
Wire Wire Line
	3500 1300 3500 1200
Wire Wire Line
	3200 1200 3200 1300
Wire Notes Line
	2400 1000 6300 1000
$Comp
L Device:R R12
U 1 1 61257C69
P 4100 1450
F 0 "R12" H 3950 1450 50  0000 C CNN
F 1 "10k" H 3950 1350 50  0000 C CNN
F 2 "Resistor_SMD:R_0805_2012Metric_Pad1.20x1.40mm_HandSolder" V 4030 1450 50  0001 C CNN
F 3 "~" H 4100 1450 50  0001 C CNN
	1    4100 1450
	1    0    0    -1  
$EndComp
$Comp
L Device:R R11
U 1 1 61257C5E
P 3800 1450
F 0 "R11" H 3650 1450 50  0000 C CNN
F 1 "10k" H 3650 1350 50  0000 C CNN
F 2 "Resistor_SMD:R_0805_2012Metric_Pad1.20x1.40mm_HandSolder" V 3730 1450 50  0001 C CNN
F 3 "~" H 3800 1450 50  0001 C CNN
	1    3800 1450
	1    0    0    -1  
$EndComp
$Comp
L Device:R R10
U 1 1 61257155
P 3500 1450
F 0 "R10" H 3350 1450 50  0000 C CNN
F 1 "10k" H 3350 1350 50  0000 C CNN
F 2 "Resistor_SMD:R_0805_2012Metric_Pad1.20x1.40mm_HandSolder" V 3430 1450 50  0001 C CNN
F 3 "~" H 3500 1450 50  0001 C CNN
	1    3500 1450
	1    0    0    -1  
$EndComp
$Comp
L Device:R R9
U 1 1 61245D1D
P 3200 1450
F 0 "R9" H 3050 1450 50  0000 C CNN
F 1 "10k" H 3050 1350 50  0000 C CNN
F 2 "Resistor_SMD:R_0805_2012Metric_Pad1.20x1.40mm_HandSolder" V 3130 1450 50  0001 C CNN
F 3 "~" H 3200 1450 50  0001 C CNN
	1    3200 1450
	1    0    0    -1  
$EndComp
Wire Wire Line
	2600 6150 2500 6150
Wire Wire Line
	2500 5750 2500 6150
Connection ~ 2500 5750
Wire Wire Line
	2600 5750 2500 5750
Wire Wire Line
	2500 5350 2500 5750
Connection ~ 2500 5350
Wire Wire Line
	2600 5350 2500 5350
Wire Wire Line
	2500 4950 2500 5350
Wire Wire Line
	2600 4950 2500 4950
Wire Wire Line
	3000 6150 4050 6150
Wire Wire Line
	3000 5750 3750 5750
Wire Wire Line
	3000 5350 3450 5350
Wire Wire Line
	3000 4950 3150 4950
$Comp
L Device:R R8
U 1 1 6123F132
P 4450 6150
F 0 "R8" V 4243 6150 50  0000 C CNN
F 1 "10k" V 4334 6150 50  0000 C CNN
F 2 "Resistor_SMD:R_0805_2012Metric_Pad1.20x1.40mm_HandSolder" V 4380 6150 50  0001 C CNN
F 3 "~" H 4450 6150 50  0001 C CNN
	1    4450 6150
	0    1    1    0   
$EndComp
$Comp
L Device:R R7
U 1 1 6123F128
P 4450 5750
F 0 "R7" V 4243 5750 50  0000 C CNN
F 1 "10k" V 4334 5750 50  0000 C CNN
F 2 "Resistor_SMD:R_0805_2012Metric_Pad1.20x1.40mm_HandSolder" V 4380 5750 50  0001 C CNN
F 3 "~" H 4450 5750 50  0001 C CNN
	1    4450 5750
	0    1    1    0   
$EndComp
$Comp
L Device:R R6
U 1 1 6123F11E
P 4450 5350
F 0 "R6" V 4243 5350 50  0000 C CNN
F 1 "10k" V 4334 5350 50  0000 C CNN
F 2 "Resistor_SMD:R_0805_2012Metric_Pad1.20x1.40mm_HandSolder" V 4380 5350 50  0001 C CNN
F 3 "~" H 4450 5350 50  0001 C CNN
	1    4450 5350
	0    1    1    0   
$EndComp
$Comp
L Device:R R5
U 1 1 6123F114
P 4450 4950
F 0 "R5" V 4243 4950 50  0000 C CNN
F 1 "10k" V 4334 4950 50  0000 C CNN
F 2 "Resistor_SMD:R_0805_2012Metric_Pad1.20x1.40mm_HandSolder" V 4380 4950 50  0001 C CNN
F 3 "~" H 4450 4950 50  0001 C CNN
	1    4450 4950
	0    1    1    0   
$EndComp
$Comp
L Device:R R4
U 1 1 612389BA
P 4450 3050
F 0 "R4" V 4243 3050 50  0000 C CNN
F 1 "10k" V 4334 3050 50  0000 C CNN
F 2 "Resistor_SMD:R_0805_2012Metric_Pad1.20x1.40mm_HandSolder" V 4380 3050 50  0001 C CNN
F 3 "~" H 4450 3050 50  0001 C CNN
	1    4450 3050
	0    1    1    0   
$EndComp
$Comp
L Device:R R3
U 1 1 612389B0
P 4450 2650
F 0 "R3" V 4243 2650 50  0000 C CNN
F 1 "10k" V 4334 2650 50  0000 C CNN
F 2 "Resistor_SMD:R_0805_2012Metric_Pad1.20x1.40mm_HandSolder" V 4380 2650 50  0001 C CNN
F 3 "~" H 4450 2650 50  0001 C CNN
	1    4450 2650
	0    1    1    0   
$EndComp
$Comp
L Device:R R2
U 1 1 612362B5
P 4450 2250
F 0 "R2" V 4243 2250 50  0000 C CNN
F 1 "10k" V 4334 2250 50  0000 C CNN
F 2 "Resistor_SMD:R_0805_2012Metric_Pad1.20x1.40mm_HandSolder" V 4380 2250 50  0001 C CNN
F 3 "~" H 4450 2250 50  0001 C CNN
	1    4450 2250
	0    1    1    0   
$EndComp
$Comp
L Device:R R1
U 1 1 6123595D
P 4450 1850
F 0 "R1" V 4243 1850 50  0000 C CNN
F 1 "10k" V 4334 1850 50  0000 C CNN
F 2 "Resistor_SMD:R_0805_2012Metric_Pad1.20x1.40mm_HandSolder" V 4380 1850 50  0001 C CNN
F 3 "~" H 4450 1850 50  0001 C CNN
	1    4450 1850
	0    1    1    0   
$EndComp
Wire Wire Line
	2600 3050 2500 3050
Wire Wire Line
	2500 2650 2500 3050
Connection ~ 2500 2650
Wire Wire Line
	2600 2650 2500 2650
Wire Wire Line
	2500 2250 2500 2650
Connection ~ 2500 2250
Wire Wire Line
	2600 2250 2500 2250
Wire Wire Line
	2500 1850 2500 2250
Wire Wire Line
	2600 1850 2500 1850
$Comp
L power:GND #PWR0102
U 1 1 61233E33
P 9400 4850
F 0 "#PWR0102" H 9400 4600 50  0001 C CNN
F 1 "GND" H 9405 4677 50  0000 C CNN
F 2 "" H 9400 4850 50  0001 C CNN
F 3 "" H 9400 4850 50  0001 C CNN
	1    9400 4850
	1    0    0    -1  
$EndComp
Text Notes 5950 4200 0    50   ~ 0
buttons
Text Notes 5950 1100 0    50   ~ 0
D-pad
$Comp
L Switch:SW_Push SW8
U 1 1 612283E5
P 2800 6150
F 0 "SW8" H 2800 6435 50  0000 C CNN
F 1 "SW_Push" H 2800 6344 50  0000 C CNN
F 2 "Footprints:XUNPU TS-1087S Tactile Switch" H 2800 6350 50  0001 C CNN
F 3 "~" H 2800 6350 50  0001 C CNN
	1    2800 6150
	1    0    0    -1  
$EndComp
$Comp
L Switch:SW_Push SW7
U 1 1 612283DB
P 2800 5750
F 0 "SW7" H 2800 6035 50  0000 C CNN
F 1 "SW_Push" H 2800 5944 50  0000 C CNN
F 2 "Footprints:XUNPU TS-1087S Tactile Switch" H 2800 5950 50  0001 C CNN
F 3 "~" H 2800 5950 50  0001 C CNN
	1    2800 5750
	1    0    0    -1  
$EndComp
$Comp
L Switch:SW_Push SW6
U 1 1 612283D1
P 2800 5350
F 0 "SW6" H 2800 5635 50  0000 C CNN
F 1 "SW_Push" H 2800 5544 50  0000 C CNN
F 2 "Footprints:XUNPU TS-1087S Tactile Switch" H 2800 5550 50  0001 C CNN
F 3 "~" H 2800 5550 50  0001 C CNN
	1    2800 5350
	1    0    0    -1  
$EndComp
$Comp
L Switch:SW_Push SW5
U 1 1 612283C7
P 2800 4950
F 0 "SW5" H 2800 5235 50  0000 C CNN
F 1 "SW_Push" H 2800 5144 50  0000 C CNN
F 2 "Footprints:XUNPU TS-1087S Tactile Switch" H 2800 5150 50  0001 C CNN
F 3 "~" H 2800 5150 50  0001 C CNN
	1    2800 4950
	1    0    0    -1  
$EndComp
$Comp
L Switch:SW_Push SW4
U 1 1 61227445
P 2800 3050
F 0 "SW4" H 2800 3335 50  0000 C CNN
F 1 "SW_Push" H 2800 3244 50  0000 C CNN
F 2 "Footprints:XUNPU TS-1087S Tactile Switch" H 2800 3250 50  0001 C CNN
F 3 "~" H 2800 3250 50  0001 C CNN
	1    2800 3050
	1    0    0    -1  
$EndComp
$Comp
L Switch:SW_Push SW3
U 1 1 6122743B
P 2800 2650
F 0 "SW3" H 2800 2935 50  0000 C CNN
F 1 "SW_Push" H 2800 2844 50  0000 C CNN
F 2 "Footprints:XUNPU TS-1087S Tactile Switch" H 2800 2850 50  0001 C CNN
F 3 "~" H 2800 2850 50  0001 C CNN
	1    2800 2650
	1    0    0    -1  
$EndComp
$Comp
L Switch:SW_Push SW2
U 1 1 612261E0
P 2800 2250
F 0 "SW2" H 2800 2535 50  0000 C CNN
F 1 "SW_Push" H 2800 2444 50  0000 C CNN
F 2 "Footprints:XUNPU TS-1087S Tactile Switch" H 2800 2450 50  0001 C CNN
F 3 "https://datasheet.lcsc.com/lcsc/1912111437_XUNPU-TS-1087S-02326_C455268.pdf" H 2800 2450 50  0001 C CNN
	1    2800 2250
	1    0    0    -1  
$EndComp
$Comp
L Switch:SW_Push SW1
U 1 1 61224D8C
P 2800 1850
F 0 "SW1" H 2800 2135 50  0000 C CNN
F 1 "SW_Push" H 2800 2044 50  0000 C CNN
F 2 "Footprints:XUNPU TS-1087S Tactile Switch" H 2800 2050 50  0001 C CNN
F 3 "~" H 2800 2050 50  0001 C CNN
	1    2800 1850
	1    0    0    -1  
$EndComp
Wire Wire Line
	8900 2750 7100 2750
Wire Wire Line
	7100 2750 7100 1850
Wire Wire Line
	7100 1850 4850 1850
Wire Wire Line
	8900 2850 7000 2850
Wire Wire Line
	7000 2850 7000 2250
Wire Wire Line
	7000 2250 5200 2250
Wire Wire Line
	8900 2950 6900 2950
Wire Wire Line
	6900 2950 6900 2650
Wire Wire Line
	6900 2650 5600 2650
Wire Wire Line
	4600 3050 5950 3050
Wire Wire Line
	4850 3250 4850 1850
Connection ~ 4850 1850
Wire Wire Line
	4850 1850 4600 1850
Wire Wire Line
	5200 3250 5200 2250
Connection ~ 5200 2250
Wire Wire Line
	5200 2250 4600 2250
Wire Wire Line
	5600 3250 5600 2650
Connection ~ 5600 2650
Wire Wire Line
	5600 2650 4600 2650
Wire Wire Line
	5950 3250 5950 3050
Connection ~ 5950 3050
Wire Wire Line
	5950 3050 8900 3050
Wire Notes Line
	6300 1000 6300 3700
Wire Notes Line
	6300 3700 2400 3700
Wire Notes Line
	2400 1000 2400 3700
Wire Wire Line
	3450 4700 3450 5350
Wire Wire Line
	3750 4700 3750 5750
Wire Wire Line
	4050 4700 4050 6150
Wire Wire Line
	3150 4700 3150 4950
Wire Wire Line
	4050 4400 4050 4300
Wire Wire Line
	3750 4400 3750 4300
Wire Wire Line
	3450 4400 3450 4300
Wire Wire Line
	3150 4300 3150 4400
$Comp
L Device:R R16
U 1 1 612DF4B1
P 4050 4550
F 0 "R16" H 3900 4550 50  0000 C CNN
F 1 "10k" H 3900 4450 50  0000 C CNN
F 2 "Resistor_SMD:R_0805_2012Metric_Pad1.20x1.40mm_HandSolder" V 3980 4550 50  0001 C CNN
F 3 "~" H 4050 4550 50  0001 C CNN
	1    4050 4550
	1    0    0    -1  
$EndComp
$Comp
L Device:R R15
U 1 1 612DF4BB
P 3750 4550
F 0 "R15" H 3600 4550 50  0000 C CNN
F 1 "10k" H 3600 4450 50  0000 C CNN
F 2 "Resistor_SMD:R_0805_2012Metric_Pad1.20x1.40mm_HandSolder" V 3680 4550 50  0001 C CNN
F 3 "~" H 3750 4550 50  0001 C CNN
	1    3750 4550
	1    0    0    -1  
$EndComp
$Comp
L Device:R R14
U 1 1 612DF4C5
P 3450 4550
F 0 "R14" H 3300 4550 50  0000 C CNN
F 1 "10k" H 3300 4450 50  0000 C CNN
F 2 "Resistor_SMD:R_0805_2012Metric_Pad1.20x1.40mm_HandSolder" V 3380 4550 50  0001 C CNN
F 3 "~" H 3450 4550 50  0001 C CNN
	1    3450 4550
	1    0    0    -1  
$EndComp
$Comp
L Device:R R13
U 1 1 612DF4CF
P 3150 4550
F 0 "R13" H 3000 4550 50  0000 C CNN
F 1 "10k" H 3000 4450 50  0000 C CNN
F 2 "Resistor_SMD:R_0805_2012Metric_Pad1.20x1.40mm_HandSolder" V 3080 4550 50  0001 C CNN
F 3 "~" H 3150 4550 50  0001 C CNN
	1    3150 4550
	1    0    0    -1  
$EndComp
Connection ~ 3150 4950
Wire Wire Line
	3150 4950 4300 4950
Connection ~ 3450 5350
Wire Wire Line
	3450 5350 4300 5350
Connection ~ 3750 5750
Wire Wire Line
	3750 5750 4300 5750
Connection ~ 4050 6150
Wire Wire Line
	4050 6150 4300 6150
Wire Wire Line
	3800 1200 4100 1200
Connection ~ 3800 1200
Wire Wire Line
	4050 4300 3750 4300
Wire Wire Line
	2100 850  2100 1200
Connection ~ 3150 4300
Wire Wire Line
	3150 4300 2100 4300
Connection ~ 3450 4300
Wire Wire Line
	3450 4300 3150 4300
Connection ~ 3750 4300
Wire Wire Line
	3750 4300 3450 4300
$Comp
L Device:C C8
U 1 1 613125CA
P 5950 6400
F 0 "C8" H 6065 6446 50  0000 L CNN
F 1 "100n" H 6065 6355 50  0000 L CNN
F 2 "Capacitor_SMD:C_0805_2012Metric_Pad1.18x1.45mm_HandSolder" H 5988 6250 50  0001 C CNN
F 3 "~" H 5950 6400 50  0001 C CNN
	1    5950 6400
	1    0    0    -1  
$EndComp
$Comp
L Device:C C7
U 1 1 613125D4
P 5600 6400
F 0 "C7" H 5715 6446 50  0000 L CNN
F 1 "100n" H 5715 6355 50  0000 L CNN
F 2 "Capacitor_SMD:C_0805_2012Metric_Pad1.18x1.45mm_HandSolder" H 5638 6250 50  0001 C CNN
F 3 "~" H 5600 6400 50  0001 C CNN
	1    5600 6400
	1    0    0    -1  
$EndComp
$Comp
L Device:C C6
U 1 1 613125DE
P 5200 6400
F 0 "C6" H 5315 6446 50  0000 L CNN
F 1 "100n" H 5315 6355 50  0000 L CNN
F 2 "Capacitor_SMD:C_0805_2012Metric_Pad1.18x1.45mm_HandSolder" H 5238 6250 50  0001 C CNN
F 3 "~" H 5200 6400 50  0001 C CNN
	1    5200 6400
	1    0    0    -1  
$EndComp
$Comp
L Device:C C5
U 1 1 613125E8
P 4850 6400
F 0 "C5" H 4965 6446 50  0000 L CNN
F 1 "100n" H 4965 6355 50  0000 L CNN
F 2 "Capacitor_SMD:C_0805_2012Metric_Pad1.18x1.45mm_HandSolder" H 4888 6250 50  0001 C CNN
F 3 "~" H 4850 6400 50  0001 C CNN
	1    4850 6400
	1    0    0    -1  
$EndComp
Wire Wire Line
	4850 6550 5200 6550
Connection ~ 5200 6550
Wire Wire Line
	5200 6550 5600 6550
Connection ~ 5600 6550
Wire Wire Line
	5600 6550 5950 6550
Wire Wire Line
	4850 3550 5200 3550
Connection ~ 5200 3550
Wire Wire Line
	5200 3550 5600 3550
Connection ~ 5600 3550
Wire Wire Line
	5600 3550 5950 3550
Connection ~ 5950 3550
Wire Wire Line
	5950 3550 6450 3550
Wire Wire Line
	8900 3150 6800 3150
Wire Wire Line
	6800 3150 6800 4950
Wire Wire Line
	6800 4950 4850 4950
Wire Wire Line
	8900 3250 6900 3250
Wire Wire Line
	6900 3250 6900 5350
Wire Wire Line
	6900 5350 5200 5350
Wire Wire Line
	8900 3350 7000 3350
Wire Wire Line
	7000 3350 7000 5750
Wire Wire Line
	7000 5750 5600 5750
Wire Wire Line
	8900 3450 7100 3450
Wire Wire Line
	7100 3450 7100 6150
Wire Wire Line
	7100 6150 5950 6150
Wire Wire Line
	4850 6250 4850 4950
Connection ~ 4850 4950
Wire Wire Line
	4850 4950 4600 4950
Wire Wire Line
	5200 6250 5200 5350
Connection ~ 5200 5350
Wire Wire Line
	5200 5350 4600 5350
Wire Wire Line
	5600 6250 5600 5750
Connection ~ 5600 5750
Wire Wire Line
	5600 5750 4600 5750
Wire Wire Line
	5950 6250 5950 6150
Connection ~ 5950 6150
Wire Wire Line
	5950 6150 4600 6150
Wire Wire Line
	1350 700  1350 850 
Wire Wire Line
	1350 850  2100 850 
Connection ~ 2100 850 
Wire Wire Line
	2100 850  8250 850 
Wire Wire Line
	3200 1200 2100 1200
Connection ~ 3200 1200
Connection ~ 2100 1200
Wire Wire Line
	2100 1200 2100 4300
Wire Notes Line
	2400 4100 6300 4100
Wire Notes Line
	6300 4100 6300 6750
Wire Notes Line
	6300 6750 2400 6750
Wire Notes Line
	2400 4100 2400 6750
Wire Wire Line
	8900 3650 8100 3650
Wire Wire Line
	8100 3650 8100 4700
NoConn ~ 8900 2650
$Comp
L 74xx:74HC165 U1
U 1 1 61223A34
P 9400 3250
F 0 "U1" H 9400 4331 50  0000 C CNN
F 1 "74HC165" H 9400 4240 50  0000 C CNN
F 2 "Package_SO:SOIC-16_3.9x9.9mm_P1.27mm" H 9400 3250 50  0001 C CNN
F 3 "https://assets.nexperia.com/documents/data-sheet/74HC_HCT165.pdf" H 9400 3250 50  0001 C CNN
	1    9400 3250
	1    0    0    -1  
$EndComp
$Comp
L Device:C C9
U 1 1 6138952C
P 10550 2150
F 0 "C9" H 10665 2196 50  0000 L CNN
F 1 "100nF" H 10665 2105 50  0000 L CNN
F 2 "Capacitor_SMD:C_0805_2012Metric_Pad1.18x1.45mm_HandSolder" H 10588 2000 50  0001 C CNN
F 3 "~" H 10550 2150 50  0001 C CNN
	1    10550 2150
	1    0    0    -1  
$EndComp
$Comp
L power:GND #PWR0103
U 1 1 6139367F
P 10550 2300
F 0 "#PWR0103" H 10550 2050 50  0001 C CNN
F 1 "GND" H 10555 2127 50  0000 C CNN
F 2 "" H 10550 2300 50  0001 C CNN
F 3 "" H 10550 2300 50  0001 C CNN
	1    10550 2300
	1    0    0    -1  
$EndComp
Wire Wire Line
	9400 850  9400 2000
Connection ~ 9400 2000
Wire Wire Line
	9400 2000 9400 2350
Text Label 8600 3850 0    50   ~ 0
BTN_CLK
Wire Wire Line
	8600 3850 8900 3850
Wire Wire Line
	8900 3950 8600 3950
Text Label 8600 3950 0    50   ~ 0
BTN_CLE
Wire Wire Line
	9900 2650 10200 2650
Text Label 9900 2650 0    50   ~ 0
BTN_SA
Wire Wire Line
	9400 4250 9400 4700
$Comp
L power:GND #PWR0104
U 1 1 614131D5
P 6450 3750
F 0 "#PWR0104" H 6450 3500 50  0001 C CNN
F 1 "GND" H 6455 3577 50  0000 C CNN
F 2 "" H 6450 3750 50  0001 C CNN
F 3 "" H 6450 3750 50  0001 C CNN
	1    6450 3750
	1    0    0    -1  
$EndComp
$Comp
L power:GND #PWR0105
U 1 1 61417C8A
P 6450 6750
F 0 "#PWR0105" H 6450 6500 50  0001 C CNN
F 1 "GND" H 6455 6577 50  0000 C CNN
F 2 "" H 6450 6750 50  0001 C CNN
F 3 "" H 6450 6750 50  0001 C CNN
	1    6450 6750
	1    0    0    -1  
$EndComp
Wire Wire Line
	6450 3550 6450 3750
Wire Wire Line
	2500 3050 2500 3550
Wire Wire Line
	2500 3550 4850 3550
Connection ~ 2500 3050
Connection ~ 4850 3550
Wire Wire Line
	9400 4700 8100 4700
Connection ~ 9400 4700
Wire Wire Line
	9400 4700 9400 4850
Wire Wire Line
	2500 6150 2500 6550
Wire Wire Line
	2500 6550 4850 6550
Connection ~ 2500 6150
Connection ~ 4850 6550
Wire Wire Line
	5950 6550 6450 6550
Wire Wire Line
	6450 6550 6450 6750
Connection ~ 5950 6550
Wire Wire Line
	9900 2750 10200 2750
Text Label 9900 2750 0    50   ~ 0
~BTN_SA
Wire Wire Line
	9400 4700 10200 4700
Wire Wire Line
	10200 4700 10200 3800
Wire Wire Line
	10200 2750 10200 3400
Wire Wire Line
	10200 3400 10350 3400
$Comp
L Connector:Conn_01x05_Male J1
U 1 1 6149DF6A
P 10550 3600
F 0 "J1" H 10522 3532 50  0000 R CNN
F 1 "Conn_01x05_Male" H 10522 3623 50  0000 R CNN
F 2 "Connector_PinHeader_2.54mm:PinHeader_1x05_P2.54mm_Vertical" H 10550 3600 50  0001 C CNN
F 3 "~" H 10550 3600 50  0001 C CNN
	1    10550 3600
	-1   0    0    1   
$EndComp
Wire Wire Line
	10350 3800 10200 3800
Wire Wire Line
	10550 2000 9400 2000
Wire Wire Line
	8250 850  8250 4550
Wire Wire Line
	8250 4550 10050 4550
Wire Wire Line
	10050 4550 10050 3700
Wire Wire Line
	10050 3700 10350 3700
Connection ~ 8250 850 
Wire Wire Line
	8250 850  9400 850 
Text Label 9950 3600 0    50   ~ 0
BTN_CLE
Text Label 9950 3500 0    50   ~ 0
BTN_CLK
Wire Wire Line
	9950 3500 10350 3500
Wire Wire Line
	9950 3600 10350 3600
$EndSCHEMATC
